^C:\USERS\822\DOCUMENTS\VISUAL STUDIO 2015\PROJECTS\PROGRAMACION 3 TAREA 4\PROGRAMACION 3 TAREA 4\STDAFX.CPP
C:\USERS\822\DOCUMENTS\VISUAL STUDIO 2015\PROJECTS\PROGRAMACION 3 TAREA 4\PROGRAMACION 3 TAREA 4\DEBUG\PROGRAMACION 3 TAREA 4.PCH
C:\USERS\822\DOCUMENTS\VISUAL STUDIO 2015\PROJECTS\PROGRAMACION 3 TAREA 4\PROGRAMACION 3 TAREA 4\DEBUG\VC140.PDB
C:\USERS\822\DOCUMENTS\VISUAL STUDIO 2015\PROJECTS\PROGRAMACION 3 TAREA 4\PROGRAMACION 3 TAREA 4\DEBUG\VC140.IDB
C:\USERS\822\DOCUMENTS\VISUAL STUDIO 2015\PROJECTS\PROGRAMACION 3 TAREA 4\PROGRAMACION 3 TAREA 4\DEBUG\STDAFX.OBJ
^C:\USERS\822\DOCUMENTS\VISUAL STUDIO 2015\PROJECTS\PROGRAMACION 3 TAREA 4\PROGRAMACION 3 TAREA 4\PROGRAMACION 3 TAREA 4.CPP
C:\USERS\822\DOCUMENTS\VISUAL STUDIO 2015\PROJECTS\PROGRAMACION 3 TAREA 4\PROGRAMACION 3 TAREA 4\DEBUG\VC140.PDB
C:\USERS\822\DOCUMENTS\VISUAL STUDIO 2015\PROJECTS\PROGRAMACION 3 TAREA 4\PROGRAMACION 3 TAREA 4\DEBUG\VC140.IDB
C:\USERS\822\DOCUMENTS\VISUAL STUDIO 2015\PROJECTS\PROGRAMACION 3 TAREA 4\PROGRAMACION 3 TAREA 4\DEBUG\PROGRAMACION 3 TAREA 4.OBJ
